test_run_dir/muladd_should_pass_though_bits/counter_en.vcd
$date
2024-04-14T10:38+0000
$end
$version
0.2
$end
$comment

$end
$timescale 1ns  $end
$scope module counter_en $end
 $var wire 4 ! count $end
 $var wire 4 " io_out $end
 $var wire 1 # io_en $end
 $var wire 1 $ clock $end
 $var wire 1 % reset $end
$upscope $end
$enddefinitions $end
$dumpvars
0%
0#
b0000 !
b0000 "
0$
$end
#0
1%
#1
1$
#6
0%
1#
0$
#11
b0001 !
b0001 "
1$
#16
0$
#21
b0010 !
b0010 "
1$
#26
0$
#31
b0011 !
b0011 "
1$
#36
0$
#41
b0100 !
b0100 "
1$
#46
0$
#51
b0101 !
b0101 "
1$
#56
0$
#61
b0110 !
b0110 "
1$
#66
0$
#71
b0111 !
b0111 "
1$
#76
0$
#81
b1000 !
b1000 "
1$
#86
0$
#91
b1001 !
b1001 "
1$
#96
0$
#101
b0000 !
b0000 "
1$
#106
0$
#111
b0001 !
b0001 "
1$
#116
0$
#121
b0010 !
b0010 "
1$
#126
0$
#131
b0011 !
b0011 "
1$
#136
0$
#141
b0100 !
b0100 "
1$
#146
0$
#151
b0101 !
b0101 "
1$
#156
0$
#161
b0110 !
b0110 "
1$
#166
0$
#171
b0111 !
b0111 "
1$
#176
0$
#181
b1000 !
b1000 "
1$
#186
0$
#191
b1001 !
b1001 "
1$
#196
0$
#201
b0000 !
b0000 "
1$
#206
0$
#211
b0001 !
b0001 "
1$
#216
0$
#221
b0010 !
b0010 "
1$
#226
0$
#231
b0011 !
b0011 "
1$
#236
0$
#241
b0100 !
b0100 "
1$
#246
0$
#251
b0101 !
b0101 "
1$
#256
0$
#261
b0110 !
b0110 "
1$
#266
0$
#271
b0111 !
b0111 "
1$
#276
0$
#281
b1000 !
b1000 "
1$
#286
0$
#291
b1001 !
b1001 "
1$
#296
0$
#301
b0000 !
b0000 "
1$
#306
0$
#311
b0001 !
b0001 "
1$
#316
0#
0$
