test_run_dir/muladd_should_pass_though_bits/div.vcd
$date
2024-04-19T07:34+0000
$end
$version
0.2
$end
$comment

$end
$timescale 1ns  $end
$scope module div $end
 $var wire 5 ! io_divout_hi $end
 $var wire 2 " io_remain_lo_hi_hi $end
 $var wire 3 # io_divout_hi_hi $end
 $var wire 5 $ io_remain_hi $end
 $var wire 1 % d_out_4 $end
 $var wire 2 & io_divout_hi_hi_hi $end
 $var wire 1 ' r_out_3 $end
 $var wire 1 ( d_out_7 $end
 $var wire 1 ) r_out_6 $end
 $var wire 1 * r_out_9 $end
 $var wire 10 + io_dividend $end
 $var wire 5 , cnt $end
 $var wire 1 - r_out_0 $end
 $var wire 1 . d_out_6 $end
 $var wire 2 / io_remain_lo_lo $end
 $var wire 1 0 d_out_9 $end
 $var wire 1 1 d_out_0 $end
 $var wire 1 2 r_out_8 $end
 $var wire 2 3 io_divout_lo_hi_hi $end
 $var wire 1 4 d_out_3 $end
 $var wire 2 5 io_remain_hi_lo $end
 $var wire 10 6 io_divout $end
 $var wire 1 7 r_out_2 $end
 $var wire 5 8 io_remain_lo $end
 $var wire 20 9 dividend_temp $end
 $var wire 2 : io_divout_hi_lo $end
 $var wire 20 ; temp $end
 $var wire 1 < r_out_5 $end
 $var wire 5 = io_divout_lo $end
 $var wire 1 > clock $end
 $var wire 1 ? d_out_2 $end
 $var wire 10 @ io_remain $end
 $var wire 2 A io_divout_lo_lo $end
 $var wire 2 B io_remain_hi_hi_hi $end
 $var wire 1 C comp $end
 $var wire 1 D d_out_5 $end
 $var wire 1 E io_div_done $end
 $var wire 1 F d_out_8 $end
 $var wire 10 G io_divisor $end
 $var wire 1 H r_out_7 $end
 $var wire 20 I divisor_temp $end
 $var wire 3 J io_remain_lo_hi $end
 $var wire 1 K r_out_1 $end
 $var wire 3 L io_remain_hi_hi $end
 $var wire 1 M r_out_4 $end
 $var wire 3 N io_divout_lo_hi $end
 $var wire 1 O reset $end
 $var wire 1 P d_out_1 $end
$upscope $end
$enddefinitions $end
$dumpvars
0%
b0000000000 +
0C
b00 &
0<
0'
b00000 ,
0>
b00000000000000000000 9
b000 J
b00 "
07
0M
b00 A
b00000000000000000000 I
b00 :
0O
b0000000000 @
02
0P
04
b00 5
b000 #
b00000 $
0-
0K
0.
b00 /
0D
0E
00
b0000000000 6
b00000 =
0(
0F
01
0)
b00000 !
0?
b00 3
0*
0H
b00000000000000000000 ;
b000 L
b00000 8
b0000000000 G
b00 B
b000 N
$end
#0
1C
1O
b00000000000000000010 ;
#1
1>
#6
b0000000011 G
0O
b0011001000 +
0>
#11
b01 3
14
0C
1.
b0011001000 6
b01000 =
1(
1>
b00110 !
b010 N
b001 #
b00000000000011001000 9
b10 :
b00000000110000000000 I
b00001 ,
b00000000000110010000 ;
#16
0>
#21
b10 3
1%
04
0.
b01 &
b0110010000 6
b10000 =
1>
b01100 !
b100 N
1F
b011 #
b00000000000110010000 9
b00 :
b00010 ,
b00000000001100100000 ;
#26
0>
#31
b00 3
0%
b11 &
1D
b1100100000 6
b00000 =
0(
1>
b11001 !
10
b000 N
b110 #
b00000000001100100000 9
b01 :
b00011 ,
b00000000011001000000 ;
#36
0>
#41
1-
1.
b10 &
0D
b1001000000 6
b01 /
1>
b10010 !
0F
b0000000001 @
b00001 8
b100 #
b00000000011001000000 9
b10 :
b00100 ,
b00000000110010000000 ;
#46
0>
#51
1C
0.
b00 &
1K
b0010000000 6
1(
b11 /
1>
b00100 !
00
b0000000011 @
b00011 8
b001 #
b00000000110010000000 9
b00 :
b00101 ,
b00000000000100000010 ;
#56
0>
#61
0-
0C
b01 &
0K
b0100000010 6
b00010 =
0(
b00 /
1>
b01000 !
1F
b0000000000 @
b00000 8
b010 #
b00000000000100000010 9
b10 A
b00110 ,
1P
b00000000001000000100 ;
#66
0>
#71
b10 &
b1000000100 6
b00100 =
1>
b10000 !
10
1?
b001 N
0F
b100 #
b00000000001000000100 9
b00 A
b00111 ,
0P
b00000000010000001000 ;
#76
0>
#81
b01 3
1-
14
b00 &
b0000001000 6
b01000 =
b01 /
1>
b00000 !
00
0?
b010 N
b0000000001 @
b00001 8
b000 #
b00000000010000001000 9
b01000 ,
b00000000100000010000 ;
#86
0>
#91
b10 3
0-
1%
04
1K
b0000010000 6
b10000 =
b10 /
1>
b100 N
b0000000010 @
b00010 8
b00000000100000010000 9
b01001 ,
b00000001000000100000 ;
#96
0>
#101
b00 3
0%
1C
b001 J
1D
0K
b0000100000 6
b00000 =
17
b00 /
1>
b00001 !
b000 N
b0000000100 @
b00100 8
b00000001000000100000 9
b01 :
b01010 ,
b00000000100001000010 ;
#106
0>
#111
0C
1.
b000 J
0D
1K
b0001000010 6
1E
b00010 =
07
b10 /
1>
b00010 !
b0000000010 @
b00010 8
b00000000100001000010 9
b10 :
b10 A
b01011 ,
1P
b00000001000010000100 ;
#116
0>
#121
1C
0.
b001 J
0K
b0010000100 6
0E
b00100 =
1(
17
b00 /
1>
b00100 !
1?
b001 N
b0000000100 @
b00100 8
b001 #
b00000001000010000100 9
b00 :
b00 A
b01100 ,
0P
b00000000100100001010 ;
#126
0>
#131
1>
b00000 ,
#136
0>
#141
b01 3
14
0C
1.
b000 J
b0011001000 6
b01000 =
07
1>
b00110 !
0?
b010 N
b0000000000 @
b00000 8
b00000000000011001000 9
b10 :
b00001 ,
b00000000000110010000 ;
#146
0>
#151
b10 3
1%
04
0.
b01 &
b0110010000 6
b10000 =
1>
b01100 !
b100 N
1F
b011 #
b00000000000110010000 9
b00 :
b00010 ,
b00000000001100100000 ;
#156
0>
#161
b00 3
0%
b11 &
1D
b1100100000 6
b00000 =
0(
1>
b11001 !
10
b000 N
b110 #
b00000000001100100000 9
b01 :
b00011 ,
b00000000011001000000 ;
#166
0>
#171
1-
1.
b10 &
0D
b1001000000 6
b01 /
1>
b10010 !
0F
b0000000001 @
b00001 8
b100 #
b00000000011001000000 9
b10 :
b00100 ,
b00000000110010000000 ;
#176
0>
#181
1C
0.
b00 &
1K
b0010000000 6
1(
b11 /
1>
b00100 !
00
b0000000011 @
b00011 8
b001 #
b00000000110010000000 9
b00 :
b00101 ,
b00000000000100000010 ;
#186
0>
#191
0-
0C
b01 &
0K
b0100000010 6
b00010 =
0(
b00 /
1>
b01000 !
1F
b0000000000 @
b00000 8
b010 #
b00000000000100000010 9
b10 A
b00110 ,
1P
b00000000001000000100 ;
#196
0>
#201
b10 &
b1000000100 6
b00100 =
1>
b10000 !
10
1?
b001 N
0F
b100 #
b00000000001000000100 9
b00 A
b00111 ,
0P
b00000000010000001000 ;
#206
0>
#211
b01 3
1-
14
b00 &
b0000001000 6
b01000 =
b01 /
1>
b00000 !
00
0?
b010 N
b0000000001 @
b00001 8
b000 #
b00000000010000001000 9
b01000 ,
b00000000100000010000 ;
#216
0>
#221
b10 3
0-
1%
04
1K
b0000010000 6
b10000 =
b10 /
1>
b100 N
b0000000010 @
b00010 8
b00000000100000010000 9
b01001 ,
b00000001000000100000 ;
#226
0>
#231
b00 3
0%
1C
b001 J
1D
0K
b0000100000 6
b00000 =
17
b00 /
1>
b00001 !
b000 N
b0000000100 @
b00100 8
b00000001000000100000 9
b01 :
b01010 ,
b00000000100001000010 ;
#236
0>
#241
0C
1.
b000 J
0D
1K
b0001000010 6
1E
b00010 =
07
b10 /
1>
b00010 !
b0000000010 @
b00010 8
b00000000100001000010 9
b10 :
b10 A
b01011 ,
1P
b00000001000010000100 ;
#246
0>
#251
1C
0.
b001 J
0K
b0010000100 6
0E
b00100 =
1(
17
b00 /
1>
b00100 !
1?
b001 N
b0000000100 @
b00100 8
b001 #
b00000001000010000100 9
b00 :
b00 A
b01100 ,
0P
b00000000100100001010 ;
#256
0>
#261
1>
b00000 ,
#266
0>
#271
b01 3
14
0C
1.
b000 J
b0011001000 6
b01000 =
07
1>
b00110 !
0?
b010 N
b0000000000 @
b00000 8
b00000000000011001000 9
b10 :
b00001 ,
b00000000000110010000 ;
#276
0>
#281
b10 3
1%
04
0.
b01 &
b0110010000 6
b10000 =
1>
b01100 !
b100 N
1F
b011 #
b00000000000110010000 9
b00 :
b00010 ,
b00000000001100100000 ;
#286
0>
#291
b00 3
0%
b11 &
1D
b1100100000 6
b00000 =
0(
1>
b11001 !
10
b000 N
b110 #
b00000000001100100000 9
b01 :
b00011 ,
b00000000011001000000 ;
#296
0>
#301
1-
1.
b10 &
0D
b1001000000 6
b01 /
1>
b10010 !
0F
b0000000001 @
b00001 8
b100 #
b00000000011001000000 9
b10 :
b00100 ,
b00000000110010000000 ;
#306
0>
#311
1C
0.
b00 &
1K
b0010000000 6
1(
b11 /
1>
b00100 !
00
b0000000011 @
b00011 8
b001 #
b00000000110010000000 9
b00 :
b00101 ,
b00000000000100000010 ;
#316
b0000000000 G
b0000000000 +
0>
